<svg width="25" height="25" viewBox="0 0 25 25" fill="none" xmlns="http://www.w3.org/2000/svg">
<path d="M14.4738 13.1572C13.7463 13.1572 13.158 13.7463 13.158 14.4737C13.158 15.1998 13.7477 15.7895 14.4738 15.7895C15.1999 15.7895 15.7896 15.1998 15.7896 14.4737C15.7897 13.7463 15.2012 13.1572 14.4738 13.1572ZM10.5263 11.8421C11.2527 11.8421 11.8421 11.2527 11.8421 10.5262C11.8421 9.79932 11.2527 9.2106 10.5263 9.2106C9.80006 9.2106 9.21066 9.79932 9.21066 10.5262C9.21066 11.2527 9.80006 11.8421 10.5263 11.8421ZM14.4738 9.2106C13.7463 9.2106 13.158 9.79932 13.158 10.5262C13.158 11.2527 13.7463 11.8421 14.4738 11.8421C15.1999 11.8421 15.7896 11.2527 15.7896 10.5262C15.7897 9.79932 15.2012 9.2106 14.4738 9.2106ZM15.7897 2.63146H9.21066V5.26308H15.7897V2.63146ZM18.4213 11.8421C19.1471 11.8421 19.7371 11.2527 19.7371 10.5262C19.7371 9.79932 19.1484 9.2106 18.4213 9.2106C17.6938 9.2106 17.1055 9.79932 17.1055 10.5262C17.1055 11.2527 17.6952 11.8421 18.4213 11.8421ZM18.4213 15.7895C19.1471 15.7895 19.7371 15.1998 19.7371 14.4737C19.7371 13.7463 19.1484 13.1579 18.4213 13.1579C17.6938 13.1579 17.1055 13.7463 17.1055 14.4737C17.1055 15.1998 17.6952 15.7895 18.4213 15.7895ZM10.5263 15.7895C11.2527 15.7895 11.8421 15.1998 11.8421 14.4737C11.8421 13.7463 11.2534 13.1572 10.5263 13.1572C9.79939 13.1572 9.21066 13.7463 9.21066 14.4737C9.21066 15.1998 9.80006 15.7895 10.5263 15.7895ZM6.57902 19.737C7.30527 19.737 7.89484 19.1469 7.89484 18.4212C7.89484 17.6938 7.30527 17.1054 6.57902 17.1054C5.85209 17.1054 5.2632 17.6938 5.2632 18.4212C5.2632 19.1469 5.85268 19.737 6.57902 19.737ZM22.3684 2.63146H21.053V5.26308H22.3684V22.3682H2.63164V5.26316H3.94729V2.63146H2.63164C1.1783 2.63146 0 3.80933 0 5.26316V22.3677C0 23.8219 1.1783 25 2.63164 25H22.3684C23.822 25 25 23.8218 25 22.3677V5.26316C25.0001 3.80933 23.822 2.63146 22.3684 2.63146ZM6.57902 15.7895C7.30527 15.7895 7.89484 15.1998 7.89484 14.4737C7.89484 13.7463 7.30527 13.1572 6.57902 13.1572C5.85209 13.1572 5.2632 13.7463 5.2632 14.4737C5.2632 15.1998 5.85268 15.7895 6.57902 15.7895ZM6.57902 11.8421C7.30527 11.8421 7.89484 11.2527 7.89484 10.5262C7.89484 9.79932 7.30527 9.2106 6.57902 9.2106C5.85209 9.2106 5.2632 9.79932 5.2632 10.5262C5.2632 11.2527 5.85268 11.8421 6.57902 11.8421ZM10.5263 19.737C11.2527 19.737 11.8421 19.1469 11.8421 18.4212C11.8421 17.6938 11.2527 17.1054 10.5263 17.1054C9.80006 17.1054 9.21066 17.6938 9.21066 18.4212C9.21066 19.1469 9.80006 19.737 10.5263 19.737ZM6.57902 5.26316C7.30527 5.26316 7.89484 4.67377 7.89484 3.94735V1.3159C7.89484 0.588725 7.30594 0 6.57902 0C5.85268 0 5.2632 0.588725 5.2632 1.31581V3.94727C5.2632 4.67377 5.85268 5.26316 6.57902 5.26316ZM18.4213 5.26316C19.1471 5.26316 19.7371 4.67377 19.7371 3.94735V1.3159C19.7371 0.588725 19.1471 0 18.4213 0C17.6938 0 17.1055 0.588725 17.1055 1.31581V3.94727C17.1055 4.67377 17.6952 5.26316 18.4213 5.26316Z" fill="#69C530"/>
</svg>
