<svg width="46" height="31" viewBox="0 0 46 31" fill="none" xmlns="http://www.w3.org/2000/svg">
<path d="M37.1833 11.625C35.8417 5.0375 30.0917 0 23 0C17.4417 0 12.65 3.1 10.35 7.75C4.40833 8.525 0 13.3687 0 19.375C0 25.7688 5.175 31 11.5 31H36.4167C41.7833 31 46 26.7375 46 21.3125C46 16.275 41.975 12.0125 37.1833 11.625ZM26.8333 17.4375V25.1875H19.1667V17.4375H13.4167L23 7.75L32.5833 17.4375H26.8333Z" fill="#69C530"/>
</svg>
