<svg width="17" height="12" viewBox="0 0 17 12" fill="none" xmlns="http://www.w3.org/2000/svg">
<path d="M5.77773 1.15039C5.97702 0.949869 6.3087 0.949869 6.51495 1.15039C6.71423 1.34414 6.71423 1.66661 6.51495 1.8599L2.77684 5.49417H15.1121C15.3996 5.49463 15.6282 5.71683 15.6282 5.99639C15.6282 6.27595 15.3996 6.50537 15.1121 6.50537H2.77684L6.51495 10.1329C6.71423 10.3334 6.71423 10.6563 6.51495 10.8496C6.3087 11.0501 5.97655 11.0501 5.77773 10.8496L1.15469 6.35498C0.948437 6.16123 0.948437 5.83877 1.15469 5.64547L5.77773 1.15039Z" fill="white" stroke="#1C8D00"/>
</svg>
