<svg width="25" height="29" viewBox="0 0 25 29" fill="none" xmlns="http://www.w3.org/2000/svg">
<path d="M12.5002 3.69727C12.2153 3.91331 8.309 6.81269 3.2992 7.81343C2.63876 19.3467 12.4939 25.3177 12.5002 25.3143C12.5064 25.3177 22.3617 19.3467 21.7012 7.81313C16.6911 6.81269 12.5002 3.69727 12.5002 3.69727Z" fill="#69C530"/>
<path d="M24.9585 5.95489C24.9385 5.60464 24.6837 5.31215 24.3387 5.24297C18.2294 4.02301 13.0134 0.190907 12.9619 0.15265C12.6859 -0.0525103 12.307 -0.0508602 12.0328 0.157539C11.8271 0.313625 6.92466 3.99276 0.661731 5.24334C0.316656 5.31221 0.061939 5.60501 0.0417233 5.95532C-0.460115 14.7193 3.66161 21.0238 7.20786 24.769C8.53866 26.1749 9.78744 27.2142 10.6008 27.8382C11.0674 28.196 11.4443 28.4589 11.678 28.6164C12.1146 28.911 12.2403 28.9953 12.4811 28.9996C12.4912 29 12.501 29 12.5106 29C12.7483 29 12.8917 28.9044 13.2699 28.6515C13.4746 28.5144 13.8064 28.2861 14.2196 27.9741C14.9396 27.4319 16.0528 26.5293 17.2691 25.3077C19.5541 23.013 21.3733 20.4577 22.6752 17.7134C24.4259 14.0245 25.1941 10.0684 24.9585 5.95489ZM18.191 21.9631C15.8451 24.8979 13.4206 26.6857 12.5002 27.3101C11.58 26.6857 9.15548 24.8983 6.80863 21.9617C3.1376 17.3681 1.37252 12.2124 1.5579 6.62861C6.84569 5.43725 11.123 2.68149 12.5042 1.71815C13.9041 2.68009 18.2551 5.45394 23.4424 6.62818C23.6278 12.2127 21.8628 17.3692 18.191 21.9631Z" fill="#69C530"/>
</svg>
