<svg width="20" height="21" viewBox="0 0 20 21" fill="none" xmlns="http://www.w3.org/2000/svg">
<path fill-rule="evenodd" clip-rule="evenodd" d="M19.9374 9.74241C19.9058 9.46128 19.578 9.25001 19.2945 9.25001C18.3781 9.25001 17.5649 8.71192 17.2238 7.87975C16.8754 7.0274 17.1001 6.03337 17.7831 5.40688C17.9981 5.21035 18.0242 4.88136 17.8439 4.65283C17.3748 4.05722 16.8417 3.5192 16.2596 3.05292C16.0317 2.87001 15.6972 2.89546 15.4996 3.11432C14.9035 3.77445 13.8328 4.01979 13.0055 3.67458C12.1445 3.31241 11.6015 2.43997 11.6547 1.50346C11.6721 1.2093 11.4572 0.953541 11.1639 0.919385C10.4169 0.83299 9.66335 0.830311 8.91413 0.913432C8.6242 0.94543 8.40921 1.19516 8.41896 1.4856C8.45155 2.41288 7.90206 3.27006 7.04962 3.61922C6.23216 3.95312 5.16897 3.70985 4.57409 3.0556C4.37748 2.8401 4.04849 2.81361 3.81943 2.99213C3.22008 3.46235 2.67499 4.00081 2.20162 4.59152C2.017 4.82116 2.04416 5.15402 2.2613 5.35159C2.95732 5.98188 3.18206 6.98454 2.82047 7.8467C2.47525 8.66869 1.6217 9.19844 0.644535 9.19844C0.327447 9.18825 0.101594 9.40108 0.0669159 9.68936C-0.0210442 10.4406 -0.0220861 11.2061 0.0625997 11.9635C0.0940034 12.2459 0.431779 12.4553 0.718357 12.4553C1.58918 12.433 2.42524 12.9722 2.77597 13.8256C3.12558 14.678 2.90084 15.6714 2.2168 16.2984C2.00286 16.4949 1.9757 16.8234 2.15601 17.0519C2.62066 17.6437 3.15385 18.1823 3.73802 18.6524C3.96715 18.8371 4.30054 18.811 4.49915 18.5922C5.09746 17.9304 6.16809 17.6855 6.99217 18.0314C7.85533 18.3924 8.39827 19.2648 8.34514 20.2018C8.3278 20.4961 8.54383 20.7523 8.83591 20.786C9.21804 20.8305 9.60248 20.8528 9.98795 20.8528C10.3539 20.8528 10.7198 20.8327 11.0857 20.792C11.3757 20.76 11.5906 20.5103 11.5808 20.2193C11.5473 19.2925 12.0977 18.4354 12.9491 18.0868C13.772 17.7507 14.8307 17.9967 15.4257 18.6503C15.6234 18.8653 15.9501 18.8913 16.1804 18.7134C16.7787 18.2443 17.3227 17.7063 17.7982 17.1139C17.9828 16.8848 17.9568 16.5514 17.7385 16.3539C17.0425 15.7236 16.8166 14.7208 17.1782 13.8592C17.5181 13.0482 18.34 12.5036 19.224 12.5036L19.3477 12.5068C19.6344 12.5301 19.8982 12.3093 19.933 12.0166C20.0211 11.2646 20.0221 10.4998 19.9374 9.74241ZM10.0159 14.2095C8.17644 14.2095 6.68022 12.7133 6.68022 10.874C6.68022 9.03466 8.17644 7.53841 10.0159 7.53841C11.8552 7.53841 13.3514 9.03466 13.3514 10.874C13.3514 12.7133 11.8552 14.2095 10.0159 14.2095Z" fill="#A7B3BE"/>
</svg>
