<svg width="58" height="60" viewBox="0 0 58 60" fill="none" xmlns="http://www.w3.org/2000/svg">
<mask id="path-1-inside-1" fill="white">
<path d="M37.9559 28.9655H40.0076C40.5741 28.9655 41.0334 29.4287 41.0334 30V32.069C41.0334 32.6403 40.5741 33.1034 40.0076 33.1034H37.9559C37.3894 33.1034 36.9301 32.6403 36.9301 32.069V30C36.9301 29.4287 37.3894 28.9655 37.9559 28.9655Z"/>
<path d="M0 6.2069V60H57.4468V6.2069H50.266V9.31035C50.266 9.88163 49.8066 10.3448 49.2401 10.3448C48.6736 10.3448 48.2143 9.88163 48.2143 9.31035V6.2069H40.0076V9.31035C40.0076 9.88163 39.5483 10.3448 38.9818 10.3448C38.4152 10.3448 37.9559 9.88163 37.9559 9.31035V6.2069H29.7492V9.31035C29.7492 9.88163 29.2899 10.3448 28.7234 10.3448C28.1569 10.3448 27.6976 9.88163 27.6976 9.31035V6.2069H19.4909V9.31035C19.4909 9.88163 19.0316 10.3448 18.465 10.3448C17.8985 10.3448 17.4392 9.88163 17.4392 9.31035V6.2069H9.23252V9.31035C9.23252 9.88163 8.7732 10.3448 8.20669 10.3448C7.64017 10.3448 7.18085 9.88163 7.18085 9.31035V6.2069H0ZM40.0076 52.7586C40.0076 53.3299 39.5483 53.7931 38.9818 53.7931C38.4152 53.7931 37.9559 53.3299 37.9559 52.7586V50.6897C37.9559 50.1184 38.4152 49.6552 38.9818 49.6552C39.5483 49.6552 40.0076 50.1184 40.0076 50.6897V52.7586ZM40.0076 42.4138C40.0076 42.9851 39.5483 43.4483 38.9818 43.4483C38.4152 43.4483 37.9559 42.9851 37.9559 42.4138V40.3448C37.9559 39.7735 38.4152 39.3103 38.9818 39.3103C39.5483 39.3103 40.0076 39.7735 40.0076 40.3448V42.4138ZM48.2143 19.6552C48.2143 19.0839 48.6736 18.6207 49.2401 18.6207C49.8066 18.6207 50.266 19.0839 50.266 19.6552V21.7241C50.266 22.2954 49.8066 22.7586 49.2401 22.7586C48.6736 22.7586 48.2143 22.2954 48.2143 21.7241V19.6552ZM48.2143 30C48.2143 29.4287 48.6736 28.9655 49.2401 28.9655C49.8066 28.9655 50.266 29.4287 50.266 30V32.069C50.266 32.6403 49.8066 33.1034 49.2401 33.1034C48.6736 33.1034 48.2143 32.6403 48.2143 32.069V30ZM48.2143 40.3448C48.2143 39.7735 48.6736 39.3103 49.2401 39.3103C49.8066 39.3103 50.266 39.7735 50.266 40.3448V42.4138C50.266 42.9851 49.8066 43.4483 49.2401 43.4483C48.6736 43.4483 48.2143 42.9851 48.2143 42.4138V40.3448ZM48.2143 50.6897C48.2143 50.1184 48.6736 49.6552 49.2401 49.6552C49.8066 49.6552 50.266 50.1184 50.266 50.6897V52.7586C50.266 53.3299 49.8066 53.7931 49.2401 53.7931C48.6736 53.7931 48.2143 53.3299 48.2143 52.7586V50.6897ZM37.9559 19.6552C37.9559 19.0839 38.4152 18.6207 38.9818 18.6207C39.5483 18.6207 40.0076 19.0839 40.0076 19.6552V21.7241C40.0076 22.2954 39.5483 22.7586 38.9818 22.7586C38.4152 22.7586 37.9559 22.2954 37.9559 21.7241V19.6552ZM34.8784 30C34.8784 28.2861 36.2564 26.8966 37.9559 26.8966H40.0076C41.7071 26.8966 43.0851 28.2861 43.0851 30V32.069C43.0851 33.7828 41.7071 35.1724 40.0076 35.1724H37.9559C36.2564 35.1724 34.8784 33.7828 34.8784 32.069V30ZM27.6976 19.6552C27.6976 19.0839 28.1569 18.6207 28.7234 18.6207C29.2899 18.6207 29.7492 19.0839 29.7492 19.6552V21.7241C29.7492 22.2954 29.2899 22.7586 28.7234 22.7586C28.1569 22.7586 27.6976 22.2954 27.6976 21.7241V19.6552ZM27.6976 30C27.6976 29.4287 28.1569 28.9655 28.7234 28.9655C29.2899 28.9655 29.7492 29.4287 29.7492 30V32.069C29.7492 32.6403 29.2899 33.1034 28.7234 33.1034C28.1569 33.1034 27.6976 32.6403 27.6976 32.069V30ZM27.6976 40.3448C27.6976 39.7735 28.1569 39.3103 28.7234 39.3103C29.2899 39.3103 29.7492 39.7735 29.7492 40.3448V42.4138C29.7492 42.9851 29.2899 43.4483 28.7234 43.4483C28.1569 43.4483 27.6976 42.9851 27.6976 42.4138V40.3448ZM27.6976 50.6897C27.6976 50.1184 28.1569 49.6552 28.7234 49.6552C29.2899 49.6552 29.7492 50.1184 29.7492 50.6897V52.7586C29.7492 53.3299 29.2899 53.7931 28.7234 53.7931C28.1569 53.7931 27.6976 53.3299 27.6976 52.7586V50.6897ZM17.4392 19.6552C17.4392 19.0839 17.8985 18.6207 18.465 18.6207C19.0316 18.6207 19.4909 19.0839 19.4909 19.6552V21.7241C19.4909 22.2954 19.0316 22.7586 18.465 22.7586C17.8985 22.7586 17.4392 22.2954 17.4392 21.7241V19.6552ZM17.4392 30C17.4392 29.4287 17.8985 28.9655 18.465 28.9655C19.0316 28.9655 19.4909 29.4287 19.4909 30V32.069C19.4909 32.6403 19.0316 33.1034 18.465 33.1034C17.8985 33.1034 17.4392 32.6403 17.4392 32.069V30ZM17.4392 40.3448C17.4392 39.7735 17.8985 39.3103 18.465 39.3103C19.0316 39.3103 19.4909 39.7735 19.4909 40.3448V42.4138C19.4909 42.9851 19.0316 43.4483 18.465 43.4483C17.8985 43.4483 17.4392 42.9851 17.4392 42.4138V40.3448ZM17.4392 50.6897C17.4392 50.1184 17.8985 49.6552 18.465 49.6552C19.0316 49.6552 19.4909 50.1184 19.4909 50.6897V52.7586C19.4909 53.3299 19.0316 53.7931 18.465 53.7931C17.8985 53.7931 17.4392 53.3299 17.4392 52.7586V50.6897ZM9.23252 52.7586C9.23252 53.3299 8.7732 53.7931 8.20669 53.7931C7.64017 53.7931 7.18085 53.3299 7.18085 52.7586V50.6897C7.18085 50.1184 7.64017 49.6552 8.20669 49.6552C8.7732 49.6552 9.23252 50.1184 9.23252 50.6897V52.7586ZM9.23252 42.4138C9.23252 42.9851 8.7732 43.4483 8.20669 43.4483C7.64017 43.4483 7.18085 42.9851 7.18085 42.4138V40.3448C7.18085 39.7735 7.64017 39.3103 8.20669 39.3103C8.7732 39.3103 9.23252 39.7735 9.23252 40.3448V42.4138ZM9.23252 32.069C9.23252 32.6403 8.7732 33.1034 8.20669 33.1034C7.64017 33.1034 7.18085 32.6403 7.18085 32.069V30C7.18085 29.4287 7.64017 28.9655 8.20669 28.9655C8.7732 28.9655 9.23252 29.4287 9.23252 30V32.069ZM8.20669 18.6207C8.7732 18.6207 9.23252 19.0839 9.23252 19.6552V21.7241C9.23252 22.2954 8.7732 22.7586 8.20669 22.7586C7.64017 22.7586 7.18085 22.2954 7.18085 21.7241V19.6552C7.18085 19.0839 7.64017 18.6207 8.20669 18.6207Z"/>
<path d="M28.7234 0C28.1569 0 27.6976 0.463194 27.6976 1.03448V6.2069H29.7492V1.03448C29.7492 0.463194 29.2899 0 28.7234 0Z"/>
<path d="M38.9818 0C38.4152 0 37.9559 0.463194 37.9559 1.03448V6.2069H40.0076V1.03448C40.0076 0.463194 39.5483 0 38.9818 0Z"/>
<path d="M50.266 1.03448C50.266 0.463194 49.8066 0 49.2401 0C48.6736 0 48.2143 0.463194 48.2143 1.03448V6.2069H50.266V1.03448Z"/>
<path d="M8.20669 0C7.64017 0 7.18085 0.463194 7.18085 1.03448V6.2069H9.23252V1.03448C9.23252 0.463194 8.7732 0 8.20669 0Z"/>
<path d="M18.465 0C17.8985 0 17.4392 0.463194 17.4392 1.03448V6.2069H19.4909V1.03448C19.4909 0.463194 19.0316 0 18.465 0Z"/>
</mask>
<path d="M37.9559 28.9655H40.0076C40.5741 28.9655 41.0334 29.4287 41.0334 30V32.069C41.0334 32.6403 40.5741 33.1034 40.0076 33.1034H37.9559C37.3894 33.1034 36.9301 32.6403 36.9301 32.069V30C36.9301 29.4287 37.3894 28.9655 37.9559 28.9655Z" fill="#69C530"/>
<path d="M0 6.2069V60H57.4468V6.2069H50.266V9.31035C50.266 9.88163 49.8066 10.3448 49.2401 10.3448C48.6736 10.3448 48.2143 9.88163 48.2143 9.31035V6.2069H40.0076V9.31035C40.0076 9.88163 39.5483 10.3448 38.9818 10.3448C38.4152 10.3448 37.9559 9.88163 37.9559 9.31035V6.2069H29.7492V9.31035C29.7492 9.88163 29.2899 10.3448 28.7234 10.3448C28.1569 10.3448 27.6976 9.88163 27.6976 9.31035V6.2069H19.4909V9.31035C19.4909 9.88163 19.0316 10.3448 18.465 10.3448C17.8985 10.3448 17.4392 9.88163 17.4392 9.31035V6.2069H9.23252V9.31035C9.23252 9.88163 8.7732 10.3448 8.20669 10.3448C7.64017 10.3448 7.18085 9.88163 7.18085 9.31035V6.2069H0ZM40.0076 52.7586C40.0076 53.3299 39.5483 53.7931 38.9818 53.7931C38.4152 53.7931 37.9559 53.3299 37.9559 52.7586V50.6897C37.9559 50.1184 38.4152 49.6552 38.9818 49.6552C39.5483 49.6552 40.0076 50.1184 40.0076 50.6897V52.7586ZM40.0076 42.4138C40.0076 42.9851 39.5483 43.4483 38.9818 43.4483C38.4152 43.4483 37.9559 42.9851 37.9559 42.4138V40.3448C37.9559 39.7735 38.4152 39.3103 38.9818 39.3103C39.5483 39.3103 40.0076 39.7735 40.0076 40.3448V42.4138ZM48.2143 19.6552C48.2143 19.0839 48.6736 18.6207 49.2401 18.6207C49.8066 18.6207 50.266 19.0839 50.266 19.6552V21.7241C50.266 22.2954 49.8066 22.7586 49.2401 22.7586C48.6736 22.7586 48.2143 22.2954 48.2143 21.7241V19.6552ZM48.2143 30C48.2143 29.4287 48.6736 28.9655 49.2401 28.9655C49.8066 28.9655 50.266 29.4287 50.266 30V32.069C50.266 32.6403 49.8066 33.1034 49.2401 33.1034C48.6736 33.1034 48.2143 32.6403 48.2143 32.069V30ZM48.2143 40.3448C48.2143 39.7735 48.6736 39.3103 49.2401 39.3103C49.8066 39.3103 50.266 39.7735 50.266 40.3448V42.4138C50.266 42.9851 49.8066 43.4483 49.2401 43.4483C48.6736 43.4483 48.2143 42.9851 48.2143 42.4138V40.3448ZM48.2143 50.6897C48.2143 50.1184 48.6736 49.6552 49.2401 49.6552C49.8066 49.6552 50.266 50.1184 50.266 50.6897V52.7586C50.266 53.3299 49.8066 53.7931 49.2401 53.7931C48.6736 53.7931 48.2143 53.3299 48.2143 52.7586V50.6897ZM37.9559 19.6552C37.9559 19.0839 38.4152 18.6207 38.9818 18.6207C39.5483 18.6207 40.0076 19.0839 40.0076 19.6552V21.7241C40.0076 22.2954 39.5483 22.7586 38.9818 22.7586C38.4152 22.7586 37.9559 22.2954 37.9559 21.7241V19.6552ZM34.8784 30C34.8784 28.2861 36.2564 26.8966 37.9559 26.8966H40.0076C41.7071 26.8966 43.0851 28.2861 43.0851 30V32.069C43.0851 33.7828 41.7071 35.1724 40.0076 35.1724H37.9559C36.2564 35.1724 34.8784 33.7828 34.8784 32.069V30ZM27.6976 19.6552C27.6976 19.0839 28.1569 18.6207 28.7234 18.6207C29.2899 18.6207 29.7492 19.0839 29.7492 19.6552V21.7241C29.7492 22.2954 29.2899 22.7586 28.7234 22.7586C28.1569 22.7586 27.6976 22.2954 27.6976 21.7241V19.6552ZM27.6976 30C27.6976 29.4287 28.1569 28.9655 28.7234 28.9655C29.2899 28.9655 29.7492 29.4287 29.7492 30V32.069C29.7492 32.6403 29.2899 33.1034 28.7234 33.1034C28.1569 33.1034 27.6976 32.6403 27.6976 32.069V30ZM27.6976 40.3448C27.6976 39.7735 28.1569 39.3103 28.7234 39.3103C29.2899 39.3103 29.7492 39.7735 29.7492 40.3448V42.4138C29.7492 42.9851 29.2899 43.4483 28.7234 43.4483C28.1569 43.4483 27.6976 42.9851 27.6976 42.4138V40.3448ZM27.6976 50.6897C27.6976 50.1184 28.1569 49.6552 28.7234 49.6552C29.2899 49.6552 29.7492 50.1184 29.7492 50.6897V52.7586C29.7492 53.3299 29.2899 53.7931 28.7234 53.7931C28.1569 53.7931 27.6976 53.3299 27.6976 52.7586V50.6897ZM17.4392 19.6552C17.4392 19.0839 17.8985 18.6207 18.465 18.6207C19.0316 18.6207 19.4909 19.0839 19.4909 19.6552V21.7241C19.4909 22.2954 19.0316 22.7586 18.465 22.7586C17.8985 22.7586 17.4392 22.2954 17.4392 21.7241V19.6552ZM17.4392 30C17.4392 29.4287 17.8985 28.9655 18.465 28.9655C19.0316 28.9655 19.4909 29.4287 19.4909 30V32.069C19.4909 32.6403 19.0316 33.1034 18.465 33.1034C17.8985 33.1034 17.4392 32.6403 17.4392 32.069V30ZM17.4392 40.3448C17.4392 39.7735 17.8985 39.3103 18.465 39.3103C19.0316 39.3103 19.4909 39.7735 19.4909 40.3448V42.4138C19.4909 42.9851 19.0316 43.4483 18.465 43.4483C17.8985 43.4483 17.4392 42.9851 17.4392 42.4138V40.3448ZM17.4392 50.6897C17.4392 50.1184 17.8985 49.6552 18.465 49.6552C19.0316 49.6552 19.4909 50.1184 19.4909 50.6897V52.7586C19.4909 53.3299 19.0316 53.7931 18.465 53.7931C17.8985 53.7931 17.4392 53.3299 17.4392 52.7586V50.6897ZM9.23252 52.7586C9.23252 53.3299 8.7732 53.7931 8.20669 53.7931C7.64017 53.7931 7.18085 53.3299 7.18085 52.7586V50.6897C7.18085 50.1184 7.64017 49.6552 8.20669 49.6552C8.7732 49.6552 9.23252 50.1184 9.23252 50.6897V52.7586ZM9.23252 42.4138C9.23252 42.9851 8.7732 43.4483 8.20669 43.4483C7.64017 43.4483 7.18085 42.9851 7.18085 42.4138V40.3448C7.18085 39.7735 7.64017 39.3103 8.20669 39.3103C8.7732 39.3103 9.23252 39.7735 9.23252 40.3448V42.4138ZM9.23252 32.069C9.23252 32.6403 8.7732 33.1034 8.20669 33.1034C7.64017 33.1034 7.18085 32.6403 7.18085 32.069V30C7.18085 29.4287 7.64017 28.9655 8.20669 28.9655C8.7732 28.9655 9.23252 29.4287 9.23252 30V32.069ZM8.20669 18.6207C8.7732 18.6207 9.23252 19.0839 9.23252 19.6552V21.7241C9.23252 22.2954 8.7732 22.7586 8.20669 22.7586C7.64017 22.7586 7.18085 22.2954 7.18085 21.7241V19.6552C7.18085 19.0839 7.64017 18.6207 8.20669 18.6207Z" fill="#69C530"/>
<path d="M28.7234 0C28.1569 0 27.6976 0.463194 27.6976 1.03448V6.2069H29.7492V1.03448C29.7492 0.463194 29.2899 0 28.7234 0Z" fill="#69C530"/>
<path d="M38.9818 0C38.4152 0 37.9559 0.463194 37.9559 1.03448V6.2069H40.0076V1.03448C40.0076 0.463194 39.5483 0 38.9818 0Z" fill="#69C530"/>
<path d="M50.266 1.03448C50.266 0.463194 49.8066 0 49.2401 0C48.6736 0 48.2143 0.463194 48.2143 1.03448V6.2069H50.266V1.03448Z" fill="#69C530"/>
<path d="M8.20669 0C7.64017 0 7.18085 0.463194 7.18085 1.03448V6.2069H9.23252V1.03448C9.23252 0.463194 8.7732 0 8.20669 0Z" fill="#69C530"/>
<path d="M18.465 0C17.8985 0 17.4392 0.463194 17.4392 1.03448V6.2069H19.4909V1.03448C19.4909 0.463194 19.0316 0 18.465 0Z" fill="#69C530"/>
<path d="M0 6.2069V4.2069H-2V6.2069H0ZM0 60H-2V62H0V60ZM57.4468 60V62H59.4468V60H57.4468ZM57.4468 6.2069H59.4468V4.2069H57.4468V6.2069ZM37.9559 30.9655H40.0076V26.9655H37.9559V30.9655ZM40.0076 30.9655C39.4537 30.9655 39.0334 30.5174 39.0334 30H43.0334C43.0334 28.34 41.6945 26.9655 40.0076 26.9655V30.9655ZM39.0334 30V32.069H43.0334V30H39.0334ZM39.0334 32.069C39.0334 31.5515 39.4537 31.1034 40.0076 31.1034V35.1034C41.6945 35.1034 43.0334 33.729 43.0334 32.069H39.0334ZM40.0076 31.1034H37.9559V35.1034H40.0076V31.1034ZM37.9559 31.1034C38.5098 31.1034 38.9301 31.5515 38.9301 32.069H34.9301C34.9301 33.729 36.269 35.1034 37.9559 35.1034V31.1034ZM38.9301 32.069V30H34.9301V32.069H38.9301ZM38.9301 30C38.9301 30.5174 38.5098 30.9655 37.9559 30.9655V26.9655C36.269 26.9655 34.9301 28.34 34.9301 30H38.9301ZM-2 6.2069V60H2V6.2069H-2ZM0 62H57.4468V58H0V62ZM59.4468 60V6.2069H55.4468V60H59.4468ZM57.4468 4.2069H50.266V8.2069H57.4468V4.2069ZM48.266 6.2069V9.31035H52.266V6.2069H48.266ZM48.266 9.31035C48.266 8.79293 48.6863 8.34483 49.2401 8.34483V12.3448C50.927 12.3448 52.266 10.9703 52.266 9.31035H48.266ZM49.2401 8.34483C49.794 8.34483 50.2143 8.79293 50.2143 9.31035H46.2143C46.2143 10.9703 47.5532 12.3448 49.2401 12.3448V8.34483ZM50.2143 9.31035V6.2069H46.2143V9.31035H50.2143ZM48.2143 4.2069H40.0076V8.2069H48.2143V4.2069ZM38.0076 6.2069V9.31035H42.0076V6.2069H38.0076ZM38.0076 9.31035C38.0076 8.79293 38.4279 8.34483 38.9818 8.34483V12.3448C40.6686 12.3448 42.0076 10.9703 42.0076 9.31035H38.0076ZM38.9818 8.34483C39.5356 8.34483 39.9559 8.79293 39.9559 9.31035H35.9559C35.9559 10.9703 37.2949 12.3448 38.9818 12.3448V8.34483ZM39.9559 9.31035V6.2069H35.9559V9.31035H39.9559ZM37.9559 4.2069H29.7492V8.2069H37.9559V4.2069ZM27.7492 6.2069V9.31035H31.7492V6.2069H27.7492ZM27.7492 9.31035C27.7492 8.79293 28.1696 8.34483 28.7234 8.34483V12.3448C30.4103 12.3448 31.7492 10.9703 31.7492 9.31035H27.7492ZM28.7234 8.34483C29.2773 8.34483 29.6976 8.79293 29.6976 9.31035H25.6976C25.6976 10.9703 27.0365 12.3448 28.7234 12.3448V8.34483ZM29.6976 9.31035V6.2069H25.6976V9.31035H29.6976ZM27.6976 4.2069H19.4909V8.2069H27.6976V4.2069ZM17.4909 6.2069V9.31035H21.4909V6.2069H17.4909ZM17.4909 9.31035C17.4909 8.79293 17.9112 8.34483 18.465 8.34483V12.3448C20.1519 12.3448 21.4909 10.9703 21.4909 9.31035H17.4909ZM18.465 8.34483C19.0189 8.34483 19.4392 8.79293 19.4392 9.31035H15.4392C15.4392 10.9703 16.7782 12.3448 18.465 12.3448V8.34483ZM19.4392 9.31035V6.2069H15.4392V9.31035H19.4392ZM17.4392 4.2069H9.23252V8.2069H17.4392V4.2069ZM7.23252 6.2069V9.31035H11.2325V6.2069H7.23252ZM7.23252 9.31035C7.23252 8.79293 7.65284 8.34483 8.20669 8.34483V12.3448C9.89356 12.3448 11.2325 10.9703 11.2325 9.31035H7.23252ZM8.20669 8.34483C8.76054 8.34483 9.18085 8.79293 9.18085 9.31035H5.18085C5.18085 10.9703 6.51981 12.3448 8.20669 12.3448V8.34483ZM9.18085 9.31035V6.2069H5.18085V9.31035H9.18085ZM7.18085 4.2069H0V8.2069H7.18085V4.2069ZM38.0076 52.7586C38.0076 52.2412 38.4279 51.7931 38.9818 51.7931V55.7931C40.6686 55.7931 42.0076 54.4186 42.0076 52.7586H38.0076ZM38.9818 51.7931C39.5356 51.7931 39.9559 52.2412 39.9559 52.7586H35.9559C35.9559 54.4186 37.2949 55.7931 38.9818 55.7931V51.7931ZM39.9559 52.7586V50.6897H35.9559V52.7586H39.9559ZM39.9559 50.6897C39.9559 51.2071 39.5356 51.6552 38.9818 51.6552V47.6552C37.2949 47.6552 35.9559 49.0297 35.9559 50.6897H39.9559ZM38.9818 51.6552C38.4279 51.6552 38.0076 51.2071 38.0076 50.6897H42.0076C42.0076 49.0297 40.6686 47.6552 38.9818 47.6552V51.6552ZM38.0076 50.6897V52.7586H42.0076V50.6897H38.0076ZM38.0076 42.4138C38.0076 41.8964 38.4279 41.4483 38.9818 41.4483V45.4483C40.6686 45.4483 42.0076 44.0738 42.0076 42.4138H38.0076ZM38.9818 41.4483C39.5356 41.4483 39.9559 41.8964 39.9559 42.4138H35.9559C35.9559 44.0738 37.2949 45.4483 38.9818 45.4483V41.4483ZM39.9559 42.4138V40.3448H35.9559V42.4138H39.9559ZM39.9559 40.3448C39.9559 40.8622 39.5356 41.3103 38.9818 41.3103V37.3103C37.2949 37.3103 35.9559 38.6848 35.9559 40.3448H39.9559ZM38.9818 41.3103C38.4279 41.3103 38.0076 40.8622 38.0076 40.3448H42.0076C42.0076 38.6848 40.6686 37.3103 38.9818 37.3103V41.3103ZM38.0076 40.3448V42.4138H42.0076V40.3448H38.0076ZM50.2143 19.6552C50.2143 20.1726 49.794 20.6207 49.2401 20.6207V16.6207C47.5532 16.6207 46.2143 17.9952 46.2143 19.6552H50.2143ZM49.2401 20.6207C48.6863 20.6207 48.266 20.1726 48.266 19.6552H52.266C52.266 17.9952 50.927 16.6207 49.2401 16.6207V20.6207ZM48.266 19.6552V21.7241H52.266V19.6552H48.266ZM48.266 21.7241C48.266 21.2067 48.6863 20.7586 49.2401 20.7586V24.7586C50.927 24.7586 52.266 23.3841 52.266 21.7241H48.266ZM49.2401 20.7586C49.794 20.7586 50.2143 21.2067 50.2143 21.7241H46.2143C46.2143 23.3841 47.5532 24.7586 49.2401 24.7586V20.7586ZM50.2143 21.7241V19.6552H46.2143V21.7241H50.2143ZM50.2143 30C50.2143 30.5174 49.794 30.9655 49.2401 30.9655V26.9655C47.5532 26.9655 46.2143 28.34 46.2143 30H50.2143ZM49.2401 30.9655C48.6863 30.9655 48.266 30.5174 48.266 30H52.266C52.266 28.34 50.927 26.9655 49.2401 26.9655V30.9655ZM48.266 30V32.069H52.266V30H48.266ZM48.266 32.069C48.266 31.5515 48.6863 31.1034 49.2401 31.1034V35.1034C50.927 35.1034 52.266 33.729 52.266 32.069H48.266ZM49.2401 31.1034C49.794 31.1034 50.2143 31.5515 50.2143 32.069H46.2143C46.2143 33.729 47.5532 35.1034 49.2401 35.1034V31.1034ZM50.2143 32.069V30H46.2143V32.069H50.2143ZM50.2143 40.3448C50.2143 40.8622 49.794 41.3103 49.2401 41.3103V37.3103C47.5532 37.3103 46.2143 38.6848 46.2143 40.3448H50.2143ZM49.2401 41.3103C48.6863 41.3103 48.266 40.8622 48.266 40.3448H52.266C52.266 38.6848 50.927 37.3103 49.2401 37.3103V41.3103ZM48.266 40.3448V42.4138H52.266V40.3448H48.266ZM48.266 42.4138C48.266 41.8964 48.6863 41.4483 49.2401 41.4483V45.4483C50.927 45.4483 52.266 44.0738 52.266 42.4138H48.266ZM49.2401 41.4483C49.794 41.4483 50.2143 41.8964 50.2143 42.4138H46.2143C46.2143 44.0738 47.5532 45.4483 49.2401 45.4483V41.4483ZM50.2143 42.4138V40.3448H46.2143V42.4138H50.2143ZM50.2143 50.6897C50.2143 51.2071 49.794 51.6552 49.2401 51.6552V47.6552C47.5532 47.6552 46.2143 49.0297 46.2143 50.6897H50.2143ZM49.2401 51.6552C48.6863 51.6552 48.266 51.2071 48.266 50.6897H52.266C52.266 49.0297 50.927 47.6552 49.2401 47.6552V51.6552ZM48.266 50.6897V52.7586H52.266V50.6897H48.266ZM48.266 52.7586C48.266 52.2412 48.6863 51.7931 49.2401 51.7931V55.7931C50.927 55.7931 52.266 54.4186 52.266 52.7586H48.266ZM49.2401 51.7931C49.794 51.7931 50.2143 52.2412 50.2143 52.7586H46.2143C46.2143 54.4186 47.5532 55.7931 49.2401 55.7931V51.7931ZM50.2143 52.7586V50.6897H46.2143V52.7586H50.2143ZM39.9559 19.6552C39.9559 20.1726 39.5356 20.6207 38.9818 20.6207V16.6207C37.2949 16.6207 35.9559 17.9952 35.9559 19.6552H39.9559ZM38.9818 20.6207C38.4279 20.6207 38.0076 20.1726 38.0076 19.6552H42.0076C42.0076 17.9952 40.6686 16.6207 38.9818 16.6207V20.6207ZM38.0076 19.6552V21.7241H42.0076V19.6552H38.0076ZM38.0076 21.7241C38.0076 21.2067 38.4279 20.7586 38.9818 20.7586V24.7586C40.6686 24.7586 42.0076 23.3841 42.0076 21.7241H38.0076ZM38.9818 20.7586C39.5356 20.7586 39.9559 21.2067 39.9559 21.7241H35.9559C35.9559 23.3841 37.2949 24.7586 38.9818 24.7586V20.7586ZM39.9559 21.7241V19.6552H35.9559V21.7241H39.9559ZM36.8784 30C36.8784 29.3748 37.3767 28.8966 37.9559 28.8966V24.8966C35.136 24.8966 32.8784 27.1974 32.8784 30H36.8784ZM37.9559 28.8966H40.0076V24.8966H37.9559V28.8966ZM40.0076 28.8966C40.5868 28.8966 41.0851 29.3748 41.0851 30H45.0851C45.0851 27.1974 42.8275 24.8966 40.0076 24.8966V28.8966ZM41.0851 30V32.069H45.0851V30H41.0851ZM41.0851 32.069C41.0851 32.6941 40.5868 33.1724 40.0076 33.1724V37.1724C42.8275 37.1724 45.0851 34.8715 45.0851 32.069H41.0851ZM40.0076 33.1724H37.9559V37.1724H40.0076V33.1724ZM37.9559 33.1724C37.3767 33.1724 36.8784 32.6941 36.8784 32.069H32.8784C32.8784 34.8715 35.136 37.1724 37.9559 37.1724V33.1724ZM36.8784 32.069V30H32.8784V32.069H36.8784ZM29.6976 19.6552C29.6976 20.1726 29.2773 20.6207 28.7234 20.6207V16.6207C27.0365 16.6207 25.6976 17.9952 25.6976 19.6552H29.6976ZM28.7234 20.6207C28.1696 20.6207 27.7492 20.1726 27.7492 19.6552H31.7492C31.7492 17.9952 30.4103 16.6207 28.7234 16.6207V20.6207ZM27.7492 19.6552V21.7241H31.7492V19.6552H27.7492ZM27.7492 21.7241C27.7492 21.2067 28.1696 20.7586 28.7234 20.7586V24.7586C30.4103 24.7586 31.7492 23.3841 31.7492 21.7241H27.7492ZM28.7234 20.7586C29.2773 20.7586 29.6976 21.2067 29.6976 21.7241H25.6976C25.6976 23.3841 27.0365 24.7586 28.7234 24.7586V20.7586ZM29.6976 21.7241V19.6552H25.6976V21.7241H29.6976ZM29.6976 30C29.6976 30.5174 29.2773 30.9655 28.7234 30.9655V26.9655C27.0365 26.9655 25.6976 28.34 25.6976 30H29.6976ZM28.7234 30.9655C28.1696 30.9655 27.7492 30.5174 27.7492 30H31.7492C31.7492 28.34 30.4103 26.9655 28.7234 26.9655V30.9655ZM27.7492 30V32.069H31.7492V30H27.7492ZM27.7492 32.069C27.7492 31.5515 28.1696 31.1034 28.7234 31.1034V35.1034C30.4103 35.1034 31.7492 33.729 31.7492 32.069H27.7492ZM28.7234 31.1034C29.2773 31.1034 29.6976 31.5515 29.6976 32.069H25.6976C25.6976 33.729 27.0365 35.1034 28.7234 35.1034V31.1034ZM29.6976 32.069V30H25.6976V32.069H29.6976ZM29.6976 40.3448C29.6976 40.8622 29.2773 41.3103 28.7234 41.3103V37.3103C27.0365 37.3103 25.6976 38.6848 25.6976 40.3448H29.6976ZM28.7234 41.3103C28.1696 41.3103 27.7492 40.8622 27.7492 40.3448H31.7492C31.7492 38.6848 30.4103 37.3103 28.7234 37.3103V41.3103ZM27.7492 40.3448V42.4138H31.7492V40.3448H27.7492ZM27.7492 42.4138C27.7492 41.8964 28.1696 41.4483 28.7234 41.4483V45.4483C30.4103 45.4483 31.7492 44.0738 31.7492 42.4138H27.7492ZM28.7234 41.4483C29.2773 41.4483 29.6976 41.8964 29.6976 42.4138H25.6976C25.6976 44.0738 27.0365 45.4483 28.7234 45.4483V41.4483ZM29.6976 42.4138V40.3448H25.6976V42.4138H29.6976ZM29.6976 50.6897C29.6976 51.2071 29.2773 51.6552 28.7234 51.6552V47.6552C27.0365 47.6552 25.6976 49.0297 25.6976 50.6897H29.6976ZM28.7234 51.6552C28.1696 51.6552 27.7492 51.2071 27.7492 50.6897H31.7492C31.7492 49.0297 30.4103 47.6552 28.7234 47.6552V51.6552ZM27.7492 50.6897V52.7586H31.7492V50.6897H27.7492ZM27.7492 52.7586C27.7492 52.2412 28.1696 51.7931 28.7234 51.7931V55.7931C30.4103 55.7931 31.7492 54.4186 31.7492 52.7586H27.7492ZM28.7234 51.7931C29.2773 51.7931 29.6976 52.2412 29.6976 52.7586H25.6976C25.6976 54.4186 27.0365 55.7931 28.7234 55.7931V51.7931ZM29.6976 52.7586V50.6897H25.6976V52.7586H29.6976ZM19.4392 19.6552C19.4392 20.1726 19.0189 20.6207 18.465 20.6207V16.6207C16.7782 16.6207 15.4392 17.9952 15.4392 19.6552H19.4392ZM18.465 20.6207C17.9112 20.6207 17.4909 20.1726 17.4909 19.6552H21.4909C21.4909 17.9952 20.1519 16.6207 18.465 16.6207V20.6207ZM17.4909 19.6552V21.7241H21.4909V19.6552H17.4909ZM17.4909 21.7241C17.4909 21.2067 17.9112 20.7586 18.465 20.7586V24.7586C20.1519 24.7586 21.4909 23.3841 21.4909 21.7241H17.4909ZM18.465 20.7586C19.0189 20.7586 19.4392 21.2067 19.4392 21.7241H15.4392C15.4392 23.3841 16.7782 24.7586 18.465 24.7586V20.7586ZM19.4392 21.7241V19.6552H15.4392V21.7241H19.4392ZM19.4392 30C19.4392 30.5174 19.0189 30.9655 18.465 30.9655V26.9655C16.7782 26.9655 15.4392 28.34 15.4392 30H19.4392ZM18.465 30.9655C17.9112 30.9655 17.4909 30.5174 17.4909 30H21.4909C21.4909 28.34 20.1519 26.9655 18.465 26.9655V30.9655ZM17.4909 30V32.069H21.4909V30H17.4909ZM17.4909 32.069C17.4909 31.5515 17.9112 31.1034 18.465 31.1034V35.1034C20.1519 35.1034 21.4909 33.729 21.4909 32.069H17.4909ZM18.465 31.1034C19.0189 31.1034 19.4392 31.5515 19.4392 32.069H15.4392C15.4392 33.729 16.7782 35.1034 18.465 35.1034V31.1034ZM19.4392 32.069V30H15.4392V32.069H19.4392ZM19.4392 40.3448C19.4392 40.8622 19.0189 41.3103 18.465 41.3103V37.3103C16.7782 37.3103 15.4392 38.6848 15.4392 40.3448H19.4392ZM18.465 41.3103C17.9112 41.3103 17.4909 40.8622 17.4909 40.3448H21.4909C21.4909 38.6848 20.1519 37.3103 18.465 37.3103V41.3103ZM17.4909 40.3448V42.4138H21.4909V40.3448H17.4909ZM17.4909 42.4138C17.4909 41.8964 17.9112 41.4483 18.465 41.4483V45.4483C20.1519 45.4483 21.4909 44.0738 21.4909 42.4138H17.4909ZM18.465 41.4483C19.0189 41.4483 19.4392 41.8964 19.4392 42.4138H15.4392C15.4392 44.0738 16.7782 45.4483 18.465 45.4483V41.4483ZM19.4392 42.4138V40.3448H15.4392V42.4138H19.4392ZM19.4392 50.6897C19.4392 51.2071 19.0189 51.6552 18.465 51.6552V47.6552C16.7782 47.6552 15.4392 49.0297 15.4392 50.6897H19.4392ZM18.465 51.6552C17.9112 51.6552 17.4909 51.2071 17.4909 50.6897H21.4909C21.4909 49.0297 20.1519 47.6552 18.465 47.6552V51.6552ZM17.4909 50.6897V52.7586H21.4909V50.6897H17.4909ZM17.4909 52.7586C17.4909 52.2412 17.9112 51.7931 18.465 51.7931V55.7931C20.1519 55.7931 21.4909 54.4186 21.4909 52.7586H17.4909ZM18.465 51.7931C19.0189 51.7931 19.4392 52.2412 19.4392 52.7586H15.4392C15.4392 54.4186 16.7782 55.7931 18.465 55.7931V51.7931ZM19.4392 52.7586V50.6897H15.4392V52.7586H19.4392ZM7.23252 52.7586C7.23252 52.2412 7.65284 51.7931 8.20669 51.7931V55.7931C9.89356 55.7931 11.2325 54.4186 11.2325 52.7586H7.23252ZM8.20669 51.7931C8.76054 51.7931 9.18085 52.2412 9.18085 52.7586H5.18085C5.18085 54.4186 6.51981 55.7931 8.20669 55.7931V51.7931ZM9.18085 52.7586V50.6897H5.18085V52.7586H9.18085ZM9.18085 50.6897C9.18085 51.2071 8.76054 51.6552 8.20669 51.6552V47.6552C6.51981 47.6552 5.18085 49.0297 5.18085 50.6897H9.18085ZM8.20669 51.6552C7.65284 51.6552 7.23252 51.2071 7.23252 50.6897H11.2325C11.2325 49.0297 9.89356 47.6552 8.20669 47.6552V51.6552ZM7.23252 50.6897V52.7586H11.2325V50.6897H7.23252ZM7.23252 42.4138C7.23252 41.8964 7.65284 41.4483 8.20669 41.4483V45.4483C9.89356 45.4483 11.2325 44.0738 11.2325 42.4138H7.23252ZM8.20669 41.4483C8.76054 41.4483 9.18085 41.8964 9.18085 42.4138H5.18085C5.18085 44.0738 6.51981 45.4483 8.20669 45.4483V41.4483ZM9.18085 42.4138V40.3448H5.18085V42.4138H9.18085ZM9.18085 40.3448C9.18085 40.8622 8.76054 41.3103 8.20669 41.3103V37.3103C6.51981 37.3103 5.18085 38.6848 5.18085 40.3448H9.18085ZM8.20669 41.3103C7.65284 41.3103 7.23252 40.8622 7.23252 40.3448H11.2325C11.2325 38.6848 9.89356 37.3103 8.20669 37.3103V41.3103ZM7.23252 40.3448V42.4138H11.2325V40.3448H7.23252ZM7.23252 32.069C7.23252 31.5515 7.65284 31.1034 8.20669 31.1034V35.1034C9.89356 35.1034 11.2325 33.729 11.2325 32.069H7.23252ZM8.20669 31.1034C8.76054 31.1034 9.18085 31.5515 9.18085 32.069H5.18085C5.18085 33.729 6.51981 35.1034 8.20669 35.1034V31.1034ZM9.18085 32.069V30H5.18085V32.069H9.18085ZM9.18085 30C9.18085 30.5174 8.76054 30.9655 8.20669 30.9655V26.9655C6.51981 26.9655 5.18085 28.34 5.18085 30H9.18085ZM8.20669 30.9655C7.65284 30.9655 7.23252 30.5174 7.23252 30H11.2325C11.2325 28.34 9.89356 26.9655 8.20669 26.9655V30.9655ZM7.23252 30V32.069H11.2325V30H7.23252ZM8.20669 20.6207C7.65284 20.6207 7.23252 20.1726 7.23252 19.6552H11.2325C11.2325 17.9952 9.89356 16.6207 8.20669 16.6207V20.6207ZM7.23252 19.6552V21.7241H11.2325V19.6552H7.23252ZM7.23252 21.7241C7.23252 21.2067 7.65284 20.7586 8.20669 20.7586V24.7586C9.89356 24.7586 11.2325 23.3841 11.2325 21.7241H7.23252ZM8.20669 20.7586C8.76054 20.7586 9.18085 21.2067 9.18085 21.7241H5.18085C5.18085 23.3841 6.51981 24.7586 8.20669 24.7586V20.7586ZM9.18085 21.7241V19.6552H5.18085V21.7241H9.18085ZM9.18085 19.6552C9.18085 20.1726 8.76054 20.6207 8.20669 20.6207V16.6207C6.51981 16.6207 5.18085 17.9952 5.18085 19.6552H9.18085ZM28.7234 -2C27.0365 -2 25.6976 -0.625515 25.6976 1.03448H29.6976C29.6976 1.5519 29.2773 2 28.7234 2V-2ZM25.6976 1.03448V6.2069H29.6976V1.03448H25.6976ZM27.6976 8.2069H29.7492V4.2069H27.6976V8.2069ZM31.7492 6.2069V1.03448H27.7492V6.2069H31.7492ZM31.7492 1.03448C31.7492 -0.625515 30.4103 -2 28.7234 -2V2C28.1696 2 27.7492 1.5519 27.7492 1.03448H31.7492ZM38.9818 -2C37.2949 -2 35.9559 -0.625515 35.9559 1.03448H39.9559C39.9559 1.5519 39.5356 2 38.9818 2V-2ZM35.9559 1.03448V6.2069H39.9559V1.03448H35.9559ZM37.9559 8.2069H40.0076V4.2069H37.9559V8.2069ZM42.0076 6.2069V1.03448H38.0076V6.2069H42.0076ZM42.0076 1.03448C42.0076 -0.625515 40.6686 -2 38.9818 -2V2C38.4279 2 38.0076 1.5519 38.0076 1.03448H42.0076ZM52.266 1.03448C52.266 -0.625515 50.927 -2 49.2401 -2V2C48.6863 2 48.266 1.5519 48.266 1.03448H52.266ZM49.2401 -2C47.5532 -2 46.2143 -0.625515 46.2143 1.03448H50.2143C50.2143 1.5519 49.794 2 49.2401 2V-2ZM46.2143 1.03448V6.2069H50.2143V1.03448H46.2143ZM48.2143 8.2069H50.266V4.2069H48.2143V8.2069ZM52.266 6.2069V1.03448H48.266V6.2069H52.266ZM8.20669 -2C6.51981 -2 5.18085 -0.625515 5.18085 1.03448H9.18085C9.18085 1.5519 8.76054 2 8.20669 2V-2ZM5.18085 1.03448V6.2069H9.18085V1.03448H5.18085ZM7.18085 8.2069H9.23252V4.2069H7.18085V8.2069ZM11.2325 6.2069V1.03448H7.23252V6.2069H11.2325ZM11.2325 1.03448C11.2325 -0.625515 9.89356 -2 8.20669 -2V2C7.65284 2 7.23252 1.5519 7.23252 1.03448H11.2325ZM18.465 -2C16.7782 -2 15.4392 -0.625515 15.4392 1.03448H19.4392C19.4392 1.5519 19.0189 2 18.465 2V-2ZM15.4392 1.03448V6.2069H19.4392V1.03448H15.4392ZM17.4392 8.2069H19.4909V4.2069H17.4392V8.2069ZM21.4909 6.2069V1.03448H17.4909V6.2069H21.4909ZM21.4909 1.03448C21.4909 -0.625515 20.1519 -2 18.465 -2V2C17.9112 2 17.4909 1.5519 17.4909 1.03448H21.4909Z" fill="#1C8D00" mask="url(#path-1-inside-1)"/>
</svg>
