<svg width="25" height="30" viewBox="0 0 25 30" fill="none" xmlns="http://www.w3.org/2000/svg">
<path d="M7.06767 19.25H7.56767V18.75V1.875C7.56767 1.08776 8.16294 0.5 8.83459 0.5H17.6692C21.2633 0.5 24.2368 3.61151 24.2368 7.5C24.2368 11.3885 21.2633 14.5 17.6692 14.5H10.6015H10.1015V15V18.75V19.25H10.6015H15.9023C16.5739 19.25 17.1692 19.8378 17.1692 20.625C17.1692 21.4122 16.5739 22 15.9023 22H10.6015H10.1015V22.5V28.125C10.1015 28.9122 9.50623 29.5 8.83459 29.5C8.16294 29.5 7.56767 28.9122 7.56767 28.125V22.5V22H7.06767H1.76692C1.09527 22 0.5 21.4122 0.5 20.625C0.5 19.8378 1.09527 19.25 1.76692 19.25H7.06767ZM10.1015 11.25V11.75H10.6015H17.6692C19.9239 11.75 21.703 9.81368 21.703 7.5C21.703 5.18632 19.9239 3.25 17.6692 3.25H10.6015H10.1015V3.75V11.25Z" fill="#69C530" stroke="#1C8D00"/>
</svg>
